Topology:
r1
r2
r3
r4
r5
r6
r7
r8
r9
r10
r11
r12
Ingress:
r1
r4
r3
r11
r12
Hosts:
1/8-r2
2/8-r5
3/8-r6
4/8-r7
5/8-r8
6/8-r9
7/8-r10
Capacities:
r1-r2: 5/1
r2-r3: 1/10
r2-r4: 4/2
r3-r5: 1/3
r4-r5: 2/2
r5-r6: 2/4
r1-r6: 1/5
r1-r7: 2/3
r2-r7: 4/3
r4-r7: 1/2
r2-r8: 2/4
r5-r8: 4/5
r6-r8: 2/3
r3-r9: 4/5
r6-r9: 4/4
r7-r9: 3/6
r1-r10: 3/3
r4-r10: 2/3
r8-r10: 1/4
r4-r11: 3/5
r5-r11: 2/3
r7-r11: 1/5
r1-r12: 3/6
r7-r12: 3/9
r10-r12: 3/5